…
Below is a table summarizing the number of items ordered from aisle. In
total, there are 134 aisles, with fresh vegetables and fresh fruits
holding the most items ordered by far.

``` r
instacart %>% 
  count(aisle) %>% 
  arrange(desc(n))
```

    ## # A tibble: 134 × 2
    ##    aisle                              n
    ##    <chr>                          <int>
    ##  1 fresh vegetables              150609
    ##  2 fresh fruits                  150473
    ##  3 packaged vegetables fruits     78493
    ##  4 yogurt                         55240
    ##  5 packaged cheese                41699
    ##  6 water seltzer sparkling water  36617
    ##  7 milk                           32644
    ##  8 chips pretzels                 31269
    ##  9 soy lactosefree                26240
    ## 10 bread                          23635
    ## # … with 124 more rows
…
    ## Rows: 35 Columns: 1443
    ## ── Column specification ────────────────────────────────────────────────────────
    ## Delimiter: ","
    ## chr    (1): day
    ## dbl (1442): week, day_id, activity.1, activity.2, activity.3, activity.4, ac...
    ## 
    ## ℹ Use `spec()` to retrieve the full column specification for this data.
    ## ℹ Specify the column types or set `show_col_types = FALSE` to quiet this message.

``` r
show(accel)
```

    ## # A tibble: 35 × 1,445
    ##     week day_id day      day_t…¹ total…² activ…³ activ…⁴ activ…⁵ activ…⁶ activ…⁷
    ##    <dbl>  <dbl> <fct>    <chr>     <dbl>   <dbl>   <dbl>   <dbl>   <dbl>   <dbl>
    ##  1     1      1 Friday   weekday 480543.    88.4    82.2    64.4    70.0    75.0
    ##  2     1      2 Monday   weekday  78828.     1       1       1       1       1  
    ##  3     1      3 Saturday weekend 376254      1       1       1       1       1  
    ##  4     1      4 Sunday   weekend 631105      1       1       1       1       1  
    ##  5     1      5 Thursday weekday 355924.    47.4    48.8    46.9    35.8    49.0
    ##  6     1      6 Tuesday  weekday 307094.    64.8    59.5    73.7    45.7    42.4
    ##  7     1      7 Wednesd… weekday 340115.    71.1   103.     68.5    45.4    37.8
    ##  8     2      8 Friday   weekday 568839    675     542    1010     779     509  
    ##  9     2      9 Monday   weekday 295431    291     335     393     335     263  
    ## 10     2     10 Saturday weekend 607175     64      11       1       1       1  
    ## # … with 25 more rows, 1,435 more variables: activity_6 <dbl>,
    ## #   activity_7 <dbl>, activity_8 <dbl>, activity_9 <dbl>, activity_10 <dbl>,
    ## #   activity_11 <dbl>, activity_12 <dbl>, activity_13 <dbl>, activity_14 <dbl>,
    ## #   activity_15 <dbl>, activity_16 <dbl>, activity_17 <dbl>, activity_18 <dbl>,
    ## #   activity_19 <dbl>, activity_20 <dbl>, activity_21 <dbl>, activity_22 <dbl>,
    ## #   activity_23 <dbl>, activity_24 <dbl>, activity_25 <dbl>, activity_26 <dbl>,
    ## #   activity_27 <dbl>, activity_28 <dbl>, activity_29 <dbl>, …
…
ny_noaa_df = 
  ny_noaa %>%
    separate(date, into = c("year", "month", "day"), sep = "-", remove = TRUE) %>% 
   mutate(
    prcp = prcp/10,
    tmax = as.numeric(tmax)/10,
    tmin = as.numeric(tmin)/10
    ) 
ny_noaa_df %>% 
  group_by(snow) %>% 
  summarise(snow_n = n()) %>% 
  arrange(-snow_n)
```

    ## # A tibble: 282 × 2
    ##     snow  snow_n
    ##    <int>   <int>
    ##  1     0 2008508
    ##  2    NA  381221
    ##  3    25   31022
    ##  4    13   23095
    ##  5    51   18274
    ##  6    76   10173
    ##  7     8    9962
    ##  8     5    9748
    ##  9    38    9197
    ## 10     3    8790
    ## # … with 272 more rows

``` r
show(ny_noaa_df)
```

    ## # A tibble: 2,595,176 × 9
    ##    id          year  month day    prcp  snow  snwd  tmax  tmin
    ##    <chr>       <chr> <chr> <chr> <dbl> <int> <int> <dbl> <dbl>
    ##  1 US1NYAB0001 2007  11    01       NA    NA    NA    NA    NA
    ##  2 US1NYAB0001 2007  11    02       NA    NA    NA    NA    NA
    ##  3 US1NYAB0001 2007  11    03       NA    NA    NA    NA    NA
    ##  4 US1NYAB0001 2007  11    04       NA    NA    NA    NA    NA
    ##  5 US1NYAB0001 2007  11    05       NA    NA    NA    NA    NA
    ##  6 US1NYAB0001 2007  11    06       NA    NA    NA    NA    NA
    ##  7 US1NYAB0001 2007  11    07       NA    NA    NA    NA    NA
    ##  8 US1NYAB0001 2007  11    08       NA    NA    NA    NA    NA
    ##  9 US1NYAB0001 2007  11    09       NA    NA    NA    NA    NA
    ## 10 US1NYAB0001 2007  11    10       NA    NA    NA    NA    NA
    ## # … with 2,595,166 more rows
…
